<svg id="Calque_1" data-name="Calque 1" xmlns="http://www.w3.org/2000/svg" viewBox="0 0 154.1 141.41">
  <defs>
    <style>
      .cls-1 {
        fill: #e3d9ef;
      }
    </style>
  </defs>
  <title>exit</title>
  <path class="cls-1" d="M26.19,79.42h67.9a7.75,7.75,0,0,0,0-15.5H25.19l7.87-7.41a7.39,7.39,0,0,0,0-10.62A7.67,7.67,0,0,0,22.21,46l-20,20A7.75,7.75,0,0,0,.67,74.66c0.07,0.22.13,0.45,0.22,0.66a7.62,7.62,0,0,0,1.71,2.61l20,20a7.67,7.67,0,0,0,10.85,0,7.91,7.91,0,0,0,0-11Z"/>
  <path class="cls-1" d="M128.89,0H74.76C61.83,0,53.36,12.06,53.36,25V44.83c0,4.13,2.64,7.49,6.78,7.49H97.3s17.88,2.42,17.88,18.42-10,18.5-14.75,20.13c-4.17,1.43-30.14,1.66-39.75.88a1.92,1.92,0,0,0-.39,0H60.14c-4.14,0-6.78,3.35-6.78,7.49v19.85c0,12.93,8.46,22.35,21.39,22.35h54.13c12.93,0,25.2-9.42,25.2-22.35V25C154.1,12.06,141.82,0,128.89,0Z"/>
</svg>
