<svg id="Calque_1" data-name="Calque 1" xmlns="http://www.w3.org/2000/svg" viewBox="0 0 96.76 134.33">
  <defs>
    <style>
      .cls-1 {
        fill: #e3d9ef;
      }
    </style>
  </defs>
  <title>location-big</title>
  <path class="cls-1" d="M48.38,0A48.38,48.38,0,0,0,0,48.38C0,67,23.61,106.5,37.85,128.59a12.53,12.53,0,0,0,21.07,0C73.15,106.5,96.76,67,96.76,48.38A48.38,48.38,0,0,0,48.38,0Zm2,76.5A24.38,24.38,0,1,1,72.68,54.19,24.38,24.38,0,0,1,50.36,76.5Z"/>
</svg>
