<svg id="Calque_1" data-name="Calque 1" xmlns="http://www.w3.org/2000/svg" viewBox="0 0 323.98 227.43">
  <defs>
    <style>
      .cls-1 {
        fill: #e6d6ed;
      }

      .cls-2 {
        fill: #e3d9ef;
      }
    </style>
  </defs>
  <title>add_anecdote</title>
  <path class="cls-1" d="M270.26,120A53.73,53.73,0,1,0,324,173.7,53.73,53.73,0,0,0,270.26,120Zm26.43,63.14h-18.4v18.4a8,8,0,1,1-15.9,0v-18.4H244a8,8,0,0,1,0-15.9h18.4v-18.4a8,8,0,0,1,15.9,0v18.4h18.4A8,8,0,0,1,296.69,183.12Z"/>
  <path class="cls-2" d="M69.54,68.4a63.56,63.56,0,0,0-22.47,4.09C59.26,37.15,92.43,38.74,96.24,39l-0.17,0h0A19.51,19.51,0,1,0,99.15.17,93.74,93.74,0,0,0,62.59,5.44C44.25,12,20.06,27.3,9,63.33c-1.22,4-2.26,7.81-3.15,11.48-20.41,71.65,18.58,103,22.12,105.63A63.72,63.72,0,1,0,69.54,68.4Z"/>
  <path class="cls-2" d="M196.59,174.66a72.32,72.32,0,0,1,90.07-70.07,63.74,63.74,0,0,0-79.84-31.9C219,37.34,252.18,38.94,256,39.25l-0.17,0h0A19.51,19.51,0,1,0,258.9.37a93.74,93.74,0,0,0-36.55,5.27C204,12.16,179.81,27.5,168.78,63.53c-1.22,4-2.26,7.81-3.15,11.48-20.41,71.65,18.58,103,22.12,105.63a63.81,63.81,0,0,0,10,7.06A72.62,72.62,0,0,1,196.59,174.66Z"/>
</svg>
