<svg id="Calque_1" data-name="Calque 1" xmlns="http://www.w3.org/2000/svg" viewBox="0 0 665.84 458.79">
  <defs>
    <style>
      .cls-1 {
      fill: #dfdfdf;
      stroke: #dfdfdf;
      stroke-width: 3px;
      }
    </style>
  </defs>
  <title>totem-3</title>
  <path class="cls-1" d="M182.74,325.17c-10.77,8.79-21.51,17.62-32.3,26.39-6.52,5.3-13,10.59-19.7,15.72-5,3.84-10.18,7.43-15.3,11.11-2.47,1.77-4.3,3.77-4.08,7.18,0.58,9.2,1,18.41,1.49,27.61,0.17,3,1.47,5.35,3.37,7.79,5.66,7.25,13.06,12.48,20,18.32,1.86,1.58,3.62,1.47,5.84.85a29.39,29.39,0,0,1,7.06-.76c2.4-.06,3.5,1.42,3.44,3.73-0.08,3.06-.23,6.13-0.36,9.19-0.2,4.55-2.1,6.15-6.77,5.78a51.43,51.43,0,0,0-5.31-.23c-9.2.24-18.41,0.38-27.6,0.92a6.34,6.34,0,0,1-5.49-2.11C101,450.5,95.16,444.27,89,438.3a13.36,13.36,0,0,1-4.56-9.45c-0.68-9.82-2.32-19.56-3.6-29.34-0.43-3.33-.93-6.66-1.49-10.64-4.53,2.41-8.5,4.47-12.41,6.66a5.69,5.69,0,0,0-1.88,2.12c-1.95,3.34-3.81,3.81-7.32,1.87-1.67-.93-3.36-2.11-5.18-2.44-13.33-2.45-26.17-7.36-39.85-8.08a5.36,5.36,0,0,1-2.54-1.15c-2.09-1.48-4.16-3-6.14-4.63-1.26-1-2.35-2.28-4.07-4,4-2.14,7.32-3.83,10.56-5.59C15.46,371,21,369.29,24.11,364c0.9-1.53,2.53-1.76,4.28-1,2.21,1,4.48,1.87,6.74,2.75a162,162,0,0,0,23.15,7.12c4.55-5,8.83-9.67,13-14.41,3.36-3.84,6.17-7.94,4.52-13.51a7.63,7.63,0,0,1-.2-1.93c-0.09-3,.43-3.78,3.45-4.1a61.93,61.93,0,0,1,6.66,0l1-2.15c2.5-5.6,4.81-11.29,7.55-16.76,1.8-3.6,3.86-7,5-11,1-3.69.88-7.3,1.18-11,1-12.55,2.38-25.08,3.62-37.61,1.58-15.92,3.24-31.82,4.68-47.75a7.43,7.43,0,0,1,2.64-5.38,37.35,37.35,0,0,0,4.91-5.33q11-14.49,21.79-29.11a12.59,12.59,0,0,1,8.33-5.22c6.18-1.17,12.33-2.61,18.41-4.23,19.84-5.29,39.69-10.54,59.42-16.19,5.11-1.46,9.87-3.65,15.33-1.93,1,0.32,2.24-.07,3.38-0.14l19.36-1.1c7.1-.41,14.22-0.69,21.31-1.29,15-1.27,29.93-2.7,44.89-4.07a389.51,389.51,0,0,0,46.89-7.47,6.35,6.35,0,0,0,3.33-1.52c6.8-7.78,13.4-15.74,20.21-23.51C405.12,99,411.46,91.92,418,85c6.23-6.56,13.24-12.44,19.06-19.33a51.38,51.38,0,0,1,20.79-14.54c11.69-4.7,23.56-9,35.26-13.64a42.45,42.45,0,0,0,10.55-5.75c2.78-2.2,5.72-3.95,9-4.26,5.53-.53,5.1-1.87,5.71-5.56a114.65,114.65,0,0,0,1-12c0.13-2.35.63-4,3.47-4.27a8,8,0,0,0,6.3-3.93c1.58-2.36,2.92-2.11,5.14-.2a90.31,90.31,0,0,0,7.19,5.7,18.63,18.63,0,0,0,14.82,3c4.11-.83,8.2-1.82,12.22-3,2.4-.7,3.77-0.06,5.37,1.85a91.41,91.41,0,0,0,7.93,7.7c0.94,0.88,2.44,1.42,2.92,2.47,2,4.31,6.08,6.64,9,10,4,4.67,8.83,8,15.16,8.62A8.66,8.66,0,0,1,616.41,43c1.32,2.56,3,5.36,6.3,6.33q19.74,5.85,39.46,11.77c2.82,0.85,3.43,2.32,2.39,5.18-0.43,1.19-1.14,2.45-1,3.62,0.6,7.23,1.36,14.46,2.16,21.67,0.46,4.1.19,5.2-3.65,6-4.95,1.09-7.89,4.26-10.16,8.31a82.68,82.68,0,0,0-4.16,8.74c-1.41,3.37-3.61,5.16-7.43,4.92-3.23-.2-6.47-0.21-9.7-0.1-2.65.09-5.46-.07-8,2.4,4.25,3.35,3.67,8.09,4,12.55,0.13,1.77,0,3.56,0,5.34-0.13,12.45-.67,24.91,1.15,37.31a7.73,7.73,0,0,1-.77,4.18c-6.27,13.13-12.54,26.26-19,39.29-5,10.13-10.78,19.89-14.78,30.54a196.83,196.83,0,0,1-9,20.44c-4.19,8.2-9.13,16-13.45,24.14-3.21,6.06-7.46,10.39-14.59,11.22a12.55,12.55,0,0,0-3.22,1q-14.35,5.92-28.67,11.91a11.16,11.16,0,0,0-2,1.48c1.32,6.15,3,12,5.93,17.48,5.28,9.72,8.64,20.19,11.75,30.75,2,6.93,3.54,14,5.79,20.9a183.07,183.07,0,0,0,16.63,37.1,20.5,20.5,0,0,0,11.15-2.23c2.14-1.06,3.89-1.17,5.88.12,4.19,2.73,8.5,5.28,12.65,8.07,2.46,1.66,3,3.44,1.94,6.35-0.81,2.28-2,4.43-2.93,6.66a5,5,0,0,1-5.36,3.26c-2.58-.18-5.16-0.33-7.75-0.38-14.73-.26-29.4-1.3-44-3-2.55-.29-5-1.19-7.55-1.73-4.36-.93-6.81-3.83-8.73-7.67s-4.26-7.19-6.42-10.77a25.79,25.79,0,0,1-2.41-4.15c-2.34-6.37-4.69-12.74-6.73-19.22-2.48-7.87-5-15.69-8.69-23.12-3.24-6.49-6-13.23-8.72-20a42.53,42.53,0,0,0-4.82-9.29c-7.57-10.57-16.71-19.69-25.46-29.19a9.86,9.86,0,0,1-2.18-3.59c-2-6.44-5.65-12-9.16-17.6a4.52,4.52,0,0,0-4.39-2.32c-13.08.19-26.09-1.15-39.25,0-12.68,1.1-25.52.42-38.29,0.28-17.31-.19-34.57.13-51.71,2.93a7,7,0,0,1-3.35-.26c-4.85-1.74-9.62-3.7-14.46-5.44q-10-3.6-20.11-7a25.32,25.32,0,0,0-4.06-.68c-5.81,15.55-10.08,30.9-11,47l3.41,2.79a11.42,11.42,0,0,1-2.11,2.35A83.42,83.42,0,0,0,240.11,354c-7.32,7.51-14.34,15.32-21.37,23.11a5.42,5.42,0,0,0-.86,3.59,37.49,37.49,0,0,0,1,5.23c2.25,11.44,8.31,21.33,12.88,31.83,1,2.2,2.46,3,4.63,2.18a89.94,89.94,0,0,0,9.9-3.89c2.57-1.29,4.58-1.47,7.18.13,4.39,2.71,9.11,4.9,13.67,7.35,2.28,1.22,4.59,2.41,6.76,3.81,2.87,1.86,3.17,2.92,2,6.1-0.89,2.43-2.06,4.77-2.82,7.23-1.22,4-4.31,5.13-7.84,5.25-4.5.15-9-.19-13.53-0.22-12-.08-23.78-3-35.81-1.66-3,.33-4.66-1.53-6-4-3.56-6.34-7.13-12.67-10.91-18.88-3.52-5.79-7.41-11.35-11-17.12-4.92-8-9.63-16.09-14.52-24.09a6.49,6.49,0,0,1-.85-5c1-5.51,4.86-9.39,7.65-13.84,3.14-5,6.84-9.65,10.17-14.28-3.73-7.35-1.95-15.73-5.09-23.38A27.82,27.82,0,0,0,182.74,325.17ZM510.64,105.63c-7.2,6-14.43,12-21.59,18-2.59,2.18-5,4.53-7.53,6.83-0.83.77-1.53,1.67-2.37,2.43q-14.4,13-28.83,25.9c-2.88,2.59-5.63,5.33-8.52,7.91-1.43,1.28-1.36,2.65-1,4.38,1.74,9.37,3.45,18.74,5,28.14,1.43,8.75,2.55,17.55,4,26.3,0.45,2.68,1.62,5.24,2.33,7.89,1.55,5.74,3,11.51,4.68,17.83,5.31-.41,10.86-0.29,16.17-1.34,15-3,30.18-3.6,45.27-5.33,10.44-1.2,20.83-2.84,31.24-4.32,4.48-.64,8.94-1.48,13.43-2a15,15,0,0,0,10.8-6.39c6.41-8.47,11.2-17.77,15.73-27.27a82.17,82.17,0,0,1,3.93-7.24c1.78-2.93,2-4.84-.27-7.43-4.06-4.58-8.34-9-12.67-13.3-9.48-9.47-20.28-17.63-28.37-28.48a68.57,68.57,0,0,1-4.34-6.44,103.14,103.14,0,0,0-15.25-19.42c-5.16-5.36-10.32-10.72-13.91-17.36a22.4,22.4,0,0,0-2.89-3.32C513.6,103.2,512.11,104.4,510.64,105.63Zm-272.8,48.93c3.48,6.76,7.15,13.37,12,19.3,3.79,4.6,6.87,9.79,10.26,14.72q17.19,24.92,34.38,49.84c2.66,3.85,5.55,7.55,8,11.52a6.2,6.2,0,0,0,6,3.26c7.92-.16,15.85-0.07,23.76-0.38,7.59-.3,15.16-1,22.74-1.48,6.13-.37,7.22-1.11,8.07-7.34,1.07-7.85,2-15.73,2.64-23.63,1.19-14.66,2.1-29.35,3.17-44,0.66-9,1.29-18.06,2.14-27.07,0.32-3.36,1.25-6.67,1.81-10a11.11,11.11,0,0,0-.17-2.5,5.22,5.22,0,0,0-1.86-.55c-6.72.91-13.42,2-20.15,2.81-7.06.88-14.14,1.55-21.21,2.31-16.24,1.75-32.46,3.65-48.72,5.16-7.88.73-15.83,0.61-23.74,1.1-6.59.4-13.16,1.13-20.68,1.79A32,32,0,0,0,237.83,154.55Zm-23.15,66.32q-7.59-5.2-15.34-10.17c-6.94-4.42-14-8.71-21-13.05-0.55-.34-1.09-0.7-1.62-1.06q-14.62-10-29.24-19.95a21.33,21.33,0,0,0-1.88-1,27.34,27.34,0,0,0-1.28,2.67,194.68,194.68,0,0,0-8.52,33.8c-1.92,12-3.94,23.93-5.56,35.95-0.8,5.9-.84,11.9-1.11,17.86a8.32,8.32,0,0,0,.64,3.77c3.29,7,6.76,14,10.06,21a16.17,16.17,0,0,0,10.06,9c11.77,4,23.37,8.5,35,12.78,0.6,0.22,1.23.33,2.41,0.63a32,32,0,0,0,2.86-4.69c6.48-16.09,14.8-31.26,22.88-46.55,3.77-7.14,7-14.57,10.48-21.85,1.39-2.89,2.91-5.73,4.78-9.39C223.6,227.21,219.2,224,214.69,220.87Zm7.37,32.52c-6.26,12.22-12.69,24.36-18.79,36.66-3,6.07-5.6,12.37-8.05,18.7-1.17,3-3.92,5.79-2.36,9.53-4.47,8.11-.3,15.94,1,23.81,0.61,3.86,1.26,4,4.92,3.44,15-2.25,30-4.49,45-6.84,6.62-1,8.13-2.61,8.75-9.41,1.17-12.82,4.54-25.09,8.89-37.14,1.7-4.73,1.89-9-1.56-13.62-8.81-11.76-17-24-25.43-36-1.16-1.66-2.07-3.49-3.73-6.32C227.39,242.72,224.77,248.08,222.05,253.39ZM408.92,99.87c-9.84,10.81-19,22.25-28.86,33.9,1.74,1.62,3,3.23,4.7,4.28,3.8,2.43,7.83,4.51,11.67,6.89,7,4.33,14.06,8.58,20.82,13.24,4.61,3.18,9.73,5,14.85,6.94a5.94,5.94,0,0,0,6.66-1.38c4.78-4.33,9.62-8.59,14.47-12.84,2.06-1.81,4.26-3.45,6.3-5.28,2.47-2.21,3.57-4.85,2.55-8.25-1.21-4-2.1-8.13-3.32-12.14q-6.28-20.61-12.72-41.18c-1.62-5.19-3.35-10.35-5.44-16.8C429.52,78.62,418.88,88.93,408.92,99.87Zm66.86,30.64c3.94-4.61,8.86-7.84,13.56-11.5,7.75-6,14.81-13,22-19.74,0.95-.89,1.27-2.94,1.13-4.39a60,60,0,0,0-1.7-9.54c-3.79-14.44-5.39-29.24-7.41-44-0.15-1.09-.43-2.16-0.78-3.89-4.46,1.66-8.64,3.18-12.79,4.77-6.64,2.55-13.18,5.41-19.92,7.64a90,90,0,0,0-21,9.84c-2.26,1.47-3.7,3.08-3.24,5.89,0.65,4,.95,8,2,11.89,2.27,8.08,4.87,16.08,7.49,24.06,2.72,8.28,5.62,16.49,8.43,24.74,1.08,3.17,2.16,6.35,3.32,9.77C470.84,135.56,473.56,133.1,475.78,130.51Zm118.18-29c-2.69-5-5.74-9.75-8.3-14.78-4.42-8.7-10.55-16.25-16-24.28a17.15,17.15,0,0,0-8.31-6.34c-15.61-6.22-31.13-12.67-46.72-19a49.35,49.35,0,0,0-6-1.59c-1.56,5.23-1,9.9-.43,14.5,1,7.53,2,15.08,3.38,22.53,1.36,7.12,3.31,14.12,5,21.19a3.82,3.82,0,0,0,3.41,3c7.62,1.4,15.26,2.75,22.88,4.14,6,1.1,12.13,2,18.1,3.38a112.27,112.27,0,0,0,26.86,3.46c2.65,0,5.3.39,8.95,0.69C595.64,105.57,595,103.45,594,101.55Zm-359.65,73c-0.25,10-.26,20-0.42,30.05-0.1,6.46-.16,12.92-0.49,19.36-0.36,7,2.18,13,6,18.45,6,8.6,12.26,17,18.38,25.56,2,2.75,3.8,5.62,5.79,8.37,3,4.18,3.48,4.14,7.31.47,4.07-3.9,8.05-7.94,12.43-11.48a94,94,0,0,1,11.69-7.7c4.44-2.59,5-3.21,2.31-7.38-5.66-8.82-11.63-17.46-17.5-26.14-4.61-6.82-9.23-13.63-13.92-20.39q-10.49-15.12-21.1-30.16c-2.66-3.79-5.4-7.53-8.1-11.29l-1.36.33C235,166.62,234.41,170.59,234.31,174.58Zm44.07,111.76c3.47,1.28,7.05,2.29,10.48,3.67,10.59,4.26,21.22,6.79,33,5.65,12.66-1.23,25.49-.7,38.25-0.85,5.81-.07,11.62.08,17.43,0.09a24.19,24.19,0,0,0,3.87-.23c2.62-.42,3.21-1.5,2.24-4.06a15,15,0,0,0-1.58-3c-4.59-6.83-9.26-13.61-13.83-20.45-2.06-3.08-4-6.21-5.9-9.42-1.39-2.4-3.22-3.19-6-3-11.76.72-23.53,1.24-35.29,1.84a39.15,39.15,0,0,1-5.32.27c-12.65-1.11-22.39,4.95-31.27,12.85-4.54,4-8.69,8.51-13.69,13.46C273.8,284.43,276.05,285.48,278.38,286.34Zm96.45-133.11c-0.95,8.83-1.32,17.72-2,26.57q-2.33,30.44-4.71,60.88c-0.11,1.43-.15,2.86-0.26,4.93,4.25-2.51,7.12-5.74,9.93-8.93,6.51-7.37,12.4-15.34,19.33-22.27,11.79-11.8,21.94-25,33.19-37.25,5.42-5.91,5-7.7-2.65-10.09-6-1.86-10.93-5.38-16.12-8.66C401.44,152,391.15,146,380.91,139.83a14,14,0,0,0-3.09-.91C376.76,143.81,375.33,148.47,374.82,153.23ZM171.95,311.69c-5.94-2.49-12-4.62-18.14-6.73-3.51-1.21-7.19-1.92-10.69-3.16-4-1.43-7.22,0-10.24,2.43-1,.8-1.85,1.81-2.83,2.64-4.31,3.63-8.65,7.23-13,10.86-1.73,1.46-3.37,3-5.1,4.47-3.44,2.91-7,5.7-10.34,8.71-2.63,2.36-5.08,4.92-7.51,7.49-1.48,1.55-1.56,3.21-.58,5.3,2.94,6.28,5.3,12.86,8.49,19,2.34,4.51,5.63,8.54,8.58,12.89,1.69-.69,3-0.95,4-1.68q10.47-7.77,20.81-15.72,7.46-5.75,14.74-11.73c9.21-7.55,18.35-15.2,27.55-22.77,2.19-1.8,4.5-3.47,7.2-5.54C180.65,314.18,176,313.41,171.95,311.69Zm214.43-58.59c15,1.07,30,2.22,45,2.93a83.91,83.91,0,0,0,15.42-1.21c4.45-.62,5.19-1.6,4.38-6.25-1-5.87-2.36-11.71-3.94-17.45a130.61,130.61,0,0,1-4.47-24.25c-0.61-7.53-2.38-15-3.71-22.44-0.44-2.5-1.11-5-1.89-8.35-8.62,7.82-14.82,16.83-22.12,24.82s-14.53,16.46-21.78,24.7l-21.62,24.56,0.41,1.47C376.8,252.14,381.58,252.76,386.37,253.11ZM157.7,179.86c6.63,4.58,13.42,9,20.24,13.26q23.53,14.84,47.16,29.52a16.74,16.74,0,0,0,2.4.92,29,29,0,0,0,.8-4.16c0.32-7.9.85-15.81,0.75-23.71a287.24,287.24,0,0,1,1.82-36.74,83.62,83.62,0,0,0,0-8.88c-14.33,2.45-27.72,6.31-41.15,10s-27,7.42-40.93,11.25C150.87,176.07,154.59,177.71,157.7,179.86Zm437.16-.3c0.72-10.47,1.51-20.94,2-31.42,0.52-10.64.74-21.29,1.09-31.94,0.11-3.41,0-3.8-3.67-4.28-8.15-1.08-16.34-1.88-24.5-3-3.67-.49-7.27-1.5-10.92-2.12q-17.18-2.93-34.38-5.71a14.63,14.63,0,0,0-3.07.2,14,14,0,0,0,3.54,7.39c4.84,5.41,9.94,10.61,14.58,16.18,4.44,5.32,8.44,11,12.61,16.54,5.53,7.33,11,14.59,18.23,20.56,8,6.65,15.37,14.13,23.68,21.87A39.91,39.91,0,0,0,594.86,179.56ZM513.75,308.86c2.74-2.08,5.68-4.27,8.57-6.52,4.59-3.57,9.21-7.11,13.69-10.81,4.73-3.9,9.34-7.94,13.94-12q5.27-4.64,10.35-9.48a62.89,62.89,0,0,0,4.18-5.05c-2.92-.33-4.61-0.55-6.31-0.71-10.77-1-21.55-1.9-32.3-3.15-11.87-1.38-23.67-3.36-35.55-4.59-7.53-.78-15.16-0.72-22.75-0.93a47.8,47.8,0,0,0-5.76.58C469.12,267.34,500.73,299.32,513.75,308.86Zm-24.4,52.48c2.48,6.12,4.79,12.37,7.95,18.14,4.25,7.76,6.6,16.11,9.09,24.46,1.74,5.86,3.56,11.66,7.25,16.73,1.87,2.58,3,5.66,4.61,8.46,0.86,1.52,1.93,2.91,3.12,4.69,2.25-1.67,2.83-3.74,3.29-5.93,1.45-6.94,2.66-14,4.52-20.8,1.69-6.22,4-12.28,6.24-18.33,1.9-5.06,2-5-2.47-8.27-6.74-5-13.24-10.34-20.11-15.14-7.27-5.08-14.84-9.72-22.31-14.5a24.85,24.85,0,0,0-3.79-1.5A30.06,30.06,0,0,0,489.35,361.34ZM220.13,435.28c1.81-2.06,3.15-4.61,5.18-6.38,4.27-3.71,3.86-7.75,1.66-12.19-0.5-1-.82-2.11-1.37-3.1a132.23,132.23,0,0,1-11-26.32c-0.86-2.88-2.5-4.58-5.15-5.14a81.55,81.55,0,0,0-12.38-1.88c-5.89-.31-11.81-0.08-17.72-0.08,1.32,5.5,30.93,53.9,36.39,59.17A59.47,59.47,0,0,0,220.13,435.28ZM93.62,429c4.14-2.51,8.17-5.23,12.4-7.59a4.93,4.93,0,0,0,2.8-5.09c-0.46-10-.67-20-1.4-30-0.54-7.36-4.19-13.48-9.6-18.33s-11.2-9.25-15.45-15.26a2.85,2.85,0,0,0-1.24-.5c-1.65,7.71,6.08,71.38,9.52,78.06A24.56,24.56,0,0,0,93.62,429ZM619.95,180c2.29-1.59,2.44-4,2.42-6.48-0.09-11.13-.13-22.27-0.18-33.4a18.52,18.52,0,0,1,0-1.94c1-9.65-2.9-16.5-11.73-20.63-1.57-.73-2.8-2.16-4.25-3.18-2.13-1.51-3.53-.95-4.15,1.65a11.89,11.89,0,0,0-.24,2.41c-0.26,9-.39,18.09-0.78,27.12-0.53,12.26-1.28,24.51-1.9,36.77-0.09,1.73,0,3.48,0,6.24C606.87,185.91,613.89,184.17,619.95,180Zm-250.46,75c-1-.12-2.09.49-3.37,0.82,0.33,3.8,2.44,6.53,4.25,9.26,4.37,6.58,9,13,13.55,19.45,3.07,4.38,4.55,5,9.24,2.56,9.72-5.07,19.33-10.37,28.9-15.72,3.94-2.2,7.69-4.73,11.47-7.21a26.15,26.15,0,0,0,3-2.72l-0.49-1.28C414,256.93,391.6,257.56,369.48,254.93ZM486.75,344.3c1.71,1,2.65,1.63,3.62,2.18,13.45,7.54,25.36,17.25,37.53,26.6a22.42,22.42,0,0,0,9,4.58A39.74,39.74,0,0,0,534,364.14c-4-10.41-8.23-20.71-12.25-31.1-1.4-3.61-2.42-7.36-3.64-11-0.6-1.8-1.27-3.57-2.2-6.15C504.76,324.29,497.07,334.7,486.75,344.3Zm15.06-39.5Q480.42,282.33,459,259.93a5.47,5.47,0,0,0-1.93-.7c-3.16,6.14-6.89,11.74-8.81,18.35-1.12,3.84-3.11,7.44-4.81,11.1-1.33,2.88-1.07,3.92,1.69,5.37a7.57,7.57,0,0,0,1.8.72c7.24,1.63,14.48,3.2,21.72,4.84,9.3,2.11,18.58,4.28,27.88,6.37,1.78,0.4,3.62.54,5.76,0.85C502,305.68,502.07,305.08,501.8,304.8Zm91-97.94c-3.27,6.31-6.37,12.71-9.76,19a48.88,48.88,0,0,1-4.82,6.67,14.38,14.38,0,0,0-2.45,6.06c-1.83,7.82-.82,15.78-1.8,23.6a7.47,7.47,0,0,1-.51,2.82c-2.92,4.85-3.46,10.36-4.61,15.71-0.6,2.79-1.22,5.58-2.06,9.42,1.62-1.25,2.56-1.65,3-2.35a199.4,199.4,0,0,0,14.53-27.9c5.88-14.17,12-28.25,19.49-41.67a8.82,8.82,0,0,0,0-9.57c-1.82-3.15-2.54-6.95-6.31-10.32C595.68,201.58,594.16,204.19,592.78,206.86Zm-78-174.25a30.91,30.91,0,0,0,3.73,2.32c7.27,3.13,14.55,6.24,21.88,9.24,6.72,2.75,13.49,5.37,20.27,8,1.62,0.62,3.34,1,5.33,1.51a312.34,312.34,0,0,0,13.79-28.29C572.06,24.62,519.47,30.48,514.78,32.61ZM109.36,249.13a19.94,19.94,0,0,1-.33,3.38c-3.43,14.42-2.92,29.24-4.44,43.85-0.3,2.87.12,5.81,0.17,8.72,0,2.22,1.2,3.41,3.33,3.16a56.76,56.76,0,0,0,8.54-1.64c0.86-.24,1.68-1.5,2.06-2.47,2.31-5.85,4.51-11.75,6.69-17.65,0.7-1.9.84-3.74-.72-5.43a5.11,5.11,0,0,1-.83-2.25q-3.61-15.33-7.19-30.67c-1.47-6.29-2.91-12.58-4.41-18.87-0.09-.39-0.56-0.68-1.56-1.83C110.2,235.29,109.79,242.21,109.36,249.13Zm393.77,6c10.7,1.47,21.42,2.73,32.16,3.85,8.64,0.9,17.31,1.49,26,2.19a14.92,14.92,0,0,0,2.41-.15c4.89-.41,5.58-0.92,6.21-5.64a59,59,0,0,0,.55-9.17c-0.1-3.94-1.22-4.95-5.12-4.54-6.57.69-13.11,1.69-19.68,2.45-16,1.85-32.06,3.61-48.08,5.49-3.8.45-7.57,1.21-11.35,1.83l0.09,0.46C491.9,253,497.48,254.37,503.13,255.14Zm-55,4.41c-18.67,11.1-37.3,22.24-56.09,33.47,1.81,2.12,4.05,1.31,6,1.31,9.21,0,18.43-.13,27.64-0.19,2.26,0,4.52.08,6.78,0.05a4.27,4.27,0,0,0,3.84-2.37A116.5,116.5,0,0,0,445,274.08c1.62-3.87,3.51-7.63,5.22-11.46a26,26,0,0,0,.91-3.48C449.61,259.33,448.72,259.2,448.13,259.55ZM193.86,350.64a5.91,5.91,0,0,0,.41,2.06c5.9,8,11.85,16,18.17,24.49l31.88-33.66-0.43-1.24C227.07,343.74,210.54,347,193.86,350.64ZM654.51,63.07c-11.95-3.86-23.89-7.73-35.88-11.46a15.52,15.52,0,0,0-5.68-.45c-3,.23-6,0.91-9.09,1.23-2.6.28-3.47,1.66-3.64,4.16-0.53,7.85-.27,8.55,7.45,9.92s15.31,2.16,23,3.28c4.14,0.6,8.3,1.19,12.39,2.06,6.52,1.39,10.55-2,14.76-7.06A28.24,28.24,0,0,0,654.51,63.07ZM527.79,435.78c5.16,1.11,9.57-2.1,14.4-2.75s9.28-2.35,14-3.61c-0.05-5.58-2.79-9.66-4.77-14s-3.68-8.61-5.54-12.91-2-9.35-5.55-13.09C535.55,394.66,528.14,422.39,527.79,435.78ZM601.18,69.62c-1.39,4.13-1.24,26.64.11,31.19l41.14-24.65-0.08-1.26C628.74,71.93,614.82,71.45,601.18,69.62ZM508.35,316c-1.74,0-2.64-.24-3.35,0-5.85,2.26-12,2.12-18.11,2.59-7.54.58-15,1.67-22.55,2.59a15,15,0,0,0-2.76.92c0,2.48,2,3.4,3.16,4.77,3.94,4.68,8,9.28,12.06,13.86a54.45,54.45,0,0,0,4,3.66Zm48.25-37.32c-8.85,8.73-18.52,16.49-28.15,24.31-2.06,1.67-4,3.51-6,5.27l0.42,0.93c1.52-.1,3-0.1,4.55-0.31,4.95-.72,10-1.17,14.8-2.37a148.74,148.74,0,0,0,15.56-5.14,4.45,4.45,0,0,0,2.4-2.73c1.85-7.84,3.49-15.72,5.16-23.6a17.62,17.62,0,0,0-.18-3.17C561.81,274.5,559,276.32,556.61,278.64ZM103.17,447.52a5.12,5.12,0,0,0,3,1.1c1.26,0.13,2.64-.45,3.85-0.17,8.58,1.95,15.18-2.67,22.8-6.56-1.68-1.59-3-2.88-4.37-4.14-4.25-3.95-8.55-7.84-12.77-11.83-2.6-2.46-3-2.61-6.26-.65-5.52,3.31-11,6.7-17,10.39C96.28,440,99.64,443.82,103.17,447.52ZM582.65,54.78c-2.86.53-5.71,1.11-8.52,1.82s-3.15,1.85-1.56,4.11c2.88,4.09,6,8,8.68,12.23,3.65,5.67,7,11.54,10.48,17.32,0.89,1.47,1.75,3,2.89,4.86,2.83-3.75,1.13-7.31,1.25-10.64s-0.12-6.78-.06-10.17c0.06-3.55.4-7.1,0.43-10.65,0-3.34-.18-6.69-0.32-11.14C590.83,53.38,586.73,54,582.65,54.78ZM249.34,419.25c-4.66,1.5-9.1,2.48-13.09,4.4-2.31,1.11-4,3.62-5.79,5.69-2.66,3.12-5.13,6.41-7.71,9.68,6.13,3.41,28.55,4.63,37.64,2.1Zm207-102.79c1.09,1.94,3.15,1.21,4.86,1.06,8.5-.76,17-1.57,25.5-2.35,3.37-.31,6.77-0.45,10.12-0.92a9.93,9.93,0,0,0,4.61-2.23c-17.35-5.75-35.15-8.75-52.73-12.7l-1,1.13C450.6,305.79,453.4,311.17,456.39,316.46ZM619.68,99.79c10-.94,19.93-1.89,29.88-3a22,22,0,0,0,6-1.75c3.12-1.32,4.08-3.07,2.77-6.12A48.87,48.87,0,0,0,653,79.76c-0.6-.83-2.68-1.21-3.83-0.89A40,40,0,0,0,641.06,82c-6.14,3.25-12.22,6.61-18.19,10.16-3.13,1.86-6,4.19-9,6.31l0.54,1.3C616.2,99.81,618,100,619.68,99.79ZM580.21,440.5c-1.36-2.91-3-5.69-4.49-8.55-1-1.89-2.46-2.37-4.44-1.83-1.09.3-2.25,0.35-3.3,0.74-8.64,3.25-18,3.4-26.72,6.19a76.52,76.52,0,0,0-10.8,4c8.11,3.05,16.56,3.05,24.86,3.78s16.65,1.42,25.88.38C580.8,443.19,580.78,441.71,580.21,440.5ZM604,107.42a28.36,28.36,0,0,0,3.81,3.62c5,3.24,10,6.25,16.5,5.13a47.18,47.18,0,0,1,11.59-.45c4.69,0.37,7.65-1,9.11-5.72,0.88-2.83,2.52-5.43,4.07-8.64C638.35,100.26,608.8,104.24,604,107.42ZM22.88,387c7,1,13.8,3.17,20.71,4.73,2.09,0.47,4.25.58,6.38,0.85l0.39-1c-2.86-3-5.5-6.22-8.65-8.84-4.44-3.7-9.27-6.93-13.91-10.38-1.63-1.22-3.26-2.11-5.31-1q-6.57,3.59-13.15,7.15c-0.58.31-1.19,0.56-1.78,0.84L8,380.93C13.29,382.17,17.16,386.2,22.88,387ZM572.36,51.86c3.08,0,5.13.27,7.07-.06,4.28-.72,8.56-1.59,12.76-2.69,4.37-1.15,7-7,4.43-10.76a35,35,0,0,0-12.29-11.46ZM205.93,377.15c-1.24-5.63-11.15-19.18-15.92-22-4.5,6.54-9.84,12.56-13.45,20.56C186.66,377.27,196.25,376.46,205.93,377.15ZM125,255.13q1.88-13.17,3.7-26.35a18.68,18.68,0,0,0,.34-4.33,4.32,4.32,0,0,0-1.34-2.89c-3.18-2.19-6.51-4.18-9.86-6.1-0.73-.42-1.79-0.27-3.52-0.48,1.25,8,2.21,15.65,3.68,23.16s3.42,14.67,5.16,22l1,0.13C124.46,258.55,124.79,256.85,125,255.13ZM62.2,392.45c5.78-2.67,11.35-4.71,15.68-8.9,0.84-.81,1-2.71.89-4.05-0.61-6.24-1.43-12.47-2.26-19.36C65,368.34,61.65,379.12,62.2,392.45Zm53.88-183,13,8.24a27.33,27.33,0,0,0,1.86-4.39c1.27-5.66,2.33-11.36,3.57-17,0.79-3.61,1.79-7.18,2.66-10.77,0.26-1.05.4-2.13,0.59-3.2l-1.21-.62ZM529.84,25.3q22.92-2.24,45.83-4.6a4.51,4.51,0,0,0,1.56-.94c-1.84-5.57-5.92-8.11-11.15-7.05q-4.75,1-9.49,2a5.36,5.36,0,0,0-2.31.67c-4.78,4.13-10.83,3.88-16.49,4.75a19.08,19.08,0,0,0-9.63,4.38A5.25,5.25,0,0,0,529.84,25.3ZM57.14,391.74c0.69-4.79,1.44-8.7,1.67-12.64,0-.86-1.66-2.23-2.82-2.67-4.65-1.79-9.41-3.29-14.11-4.94-2.28-.8-4.51-1.74-6.8-2.49-1.4-.46-2.88-0.68-4.33-1l-0.43,1ZM601.71,192.38c0.57,5.83,4.23,9.73,5.58,14.68a6.55,6.55,0,0,0,1.85-.76,10.08,10.08,0,0,0,1.72-2.31c2.81-5.75,5.56-11.52,8.32-17.29l-1-1.22ZM103.42,324.81c4.32-3.79,8.4-7.87,12.72-12-1.48-1.56-3.24,0-4.82-.23-6.29-1.08-9.61,2.22-12.25,7.5-3,6.07-3.36,5.92-3.76,10.42A93.56,93.56,0,0,0,103.42,324.81ZM267,440.76c2.55-2.39,3.28-5.37,4.08-8.23a3.42,3.42,0,0,0-.94-3,32.58,32.58,0,0,0-13.42-5.92C259.12,430.07,260.37,437,267,440.76ZM141.78,452.61c-2.64-6-5.09-7.23-10.74-5.25a15.93,15.93,0,0,0-3.54,1.55,20.65,20.65,0,0,1-12.44,3.25,27,27,0,0,0-3.76.39C116.05,455.6,136.15,455.16,141.78,452.61ZM123.37,305.14l0.91,0.56c3.76-2.9,7.58-5.74,11.23-8.77a3.34,3.34,0,0,0,.91-2.92c-1.17-3.24-2.68-6.36-4.06-9.53l-1.37.17ZM94.66,358.84a8.26,8.26,0,0,0-.19-2.39C93,353,91.64,349.58,90,346.26s-3.65-3.74-7-1.78C86.59,352.44,90.07,356.75,94.66,358.84ZM612.19,46.35c0-2.4-.93-4.08-2.92-4.71a21.52,21.52,0,0,0-6.1-.92,2.82,2.82,0,0,0-1.79,2,32.25,32.25,0,0,0-.09,5.21C605.33,47.84,608.82,47.86,612.19,46.35ZM534.73,6.87a6.34,6.34,0,0,0-1,1.64c-0.3,2.38-.51,4.76-0.77,7.31,4.32,1.28,7.92-.31,11.65-1l0-1.46ZM589.1,439.59a2.74,2.74,0,0,0-.76-3.85,37,37,0,0,0-7-4.23c-0.19,4.66,3.3,7.63,4.38,12.81C587.35,442.08,588.35,440.91,589.1,439.59ZM528.13,9.3c-1.92-1-3-.18-3.86,1.15-1.36,2.19-1.09,6.7.87,10.25C528.5,17,528.67,13.21,528.13,9.3ZM658.44,79.8c2.05-3.26,2.05-4.29-.2-8.19C654.71,74.48,654.75,75.14,658.44,79.8ZM146.87,451.2l0.76-7.69-6.38,1.18Z"/>
</svg>
